%YAML 1.1
%TAG !u! tag:unity3d.com,2011:
--- !u!74 &7400000
AnimationClip:
  m_ObjectHideFlags: 0
  m_CorrespondingSourceObject: {fileID: 0}
  m_PrefabInstance: {fileID: 0}
  m_PrefabAsset: {fileID: 0}
  m_Name: Flame
  serializedVersion: 6
  m_Legacy: 0
  m_Compressed: 0
  m_UseHighQualityCurve: 1
  m_RotationCurves: []
  m_CompressedRotationCurves: []
  m_EulerCurves: []
  m_PositionCurves: []
  m_ScaleCurves: []
  m_FloatCurves: []
  m_PPtrCurves:
  - curve:
    - time: 0
      value: {fileID: 21300000, guid: 8a83eacc02d6f4296affe18c5e9c1e2d, type: 3}
    - time: 0.025
      value: {fileID: 21300000, guid: 0e400e4ebf5dc4bb6b07a642ee848406, type: 3}
    - time: 0.05
      value: {fileID: 21300000, guid: 954edb83e66c84586ae6ece54b8aa307, type: 3}
    - time: 0.075
      value: {fileID: 21300000, guid: c165a9b5d2d4a4a2d9f1d4c5b03edad1, type: 3}
    - time: 0.1
      value: {fileID: 21300000, guid: 14d960fd48b67476694dd3cc219bab89, type: 3}
    - time: 0.125
      value: {fileID: 21300000, guid: f3f8d1e3e60884583995638b77aa6d43, type: 3}
    - time: 0.15
      value: {fileID: 21300000, guid: 6fadc7cecd6984c7d8c18926ba88c675, type: 3}
    - time: 0.175
      value: {fileID: 21300000, guid: 142726365a5ef418aba8acf566d69410, type: 3}
    - time: 0.2
      value: {fileID: 21300000, guid: 390d5c606cfdf49919c6b5e7d5c98dc7, type: 3}
    - time: 0.225
      value: {fileID: 21300000, guid: 88d44d41b599840118f5454e41eb091c, type: 3}
    - time: 0.25
      value: {fileID: 21300000, guid: 683955b5ee28d41d3a3a7914e6d2fc40, type: 3}
    - time: 0.275
      value: {fileID: 21300000, guid: 453314bd1ab374572bc5a619e04ecd0f, type: 3}
    - time: 0.3
      value: {fileID: 21300000, guid: 258c2a643b38d4cb28d8344d98c14597, type: 3}
    - time: 0.325
      value: {fileID: 21300000, guid: 14cb61c88645f4b64a21dd92db3e6d85, type: 3}
    - time: 0.35
      value: {fileID: 21300000, guid: 3ebe7282daceb441392124eb490553dc, type: 3}
    - time: 0.375
      value: {fileID: 21300000, guid: c7a45ba00da3248b192e106dffa11a38, type: 3}
    - time: 0.4
      value: {fileID: 21300000, guid: 383f97795cbff40f397fa3b594ceb3e9, type: 3}
    - time: 0.425
      value: {fileID: 21300000, guid: 4926d024dc0984b88b3711d14766784d, type: 3}
    - time: 0.45
      value: {fileID: 21300000, guid: 42e4cd355d0d843359abf4bb73ba4dad, type: 3}
    - time: 0.475
      value: {fileID: 21300000, guid: b58a9db184ebd4bc2bd499ee114c341e, type: 3}
    - time: 0.5
      value: {fileID: 21300000, guid: 018982dd0838d4412b8a2c8458f5ce34, type: 3}
    - time: 0.525
      value: {fileID: 21300000, guid: eb49f3b14b66d4a66a0f0b8d63f27659, type: 3}
    - time: 0.55
      value: {fileID: 21300000, guid: 103c676aaa8264c0bb305394075f94b4, type: 3}
    - time: 0.575
      value: {fileID: 21300000, guid: 660fca81cd873447fbcf613d130f3e8d, type: 3}
    - time: 0.6
      value: {fileID: 21300000, guid: edd2a1be0885b436b980486ac890bda5, type: 3}
    - time: 0.625
      value: {fileID: 21300000, guid: c2a9e46b02f924e9b850c8af31348587, type: 3}
    - time: 0.65
      value: {fileID: 21300000, guid: b9a4e65a65ef546138f5305f41f32387, type: 3}
    - time: 0.675
      value: {fileID: 21300000, guid: 0e8d1c1e310af4be6a7f41dc39b0179b, type: 3}
    - time: 0.7
      value: {fileID: 21300000, guid: 0e2e1aa3f491345d79c7b0d2c6c6864c, type: 3}
    attribute: m_Sprite
    path: 
    classID: 212
    script: {fileID: 0}
  m_SampleRate: 40
  m_WrapMode: 0
  m_Bounds:
    m_Center: {x: 0, y: 0, z: 0}
    m_Extent: {x: 0, y: 0, z: 0}
  m_ClipBindingConstant:
    genericBindings:
    - serializedVersion: 2
      path: 0
      attribute: 0
      script: {fileID: 0}
      typeID: 212
      customType: 23
      isPPtrCurve: 1
    pptrCurveMapping:
    - {fileID: 21300000, guid: 8a83eacc02d6f4296affe18c5e9c1e2d, type: 3}
    - {fileID: 21300000, guid: 0e400e4ebf5dc4bb6b07a642ee848406, type: 3}
    - {fileID: 21300000, guid: 954edb83e66c84586ae6ece54b8aa307, type: 3}
    - {fileID: 21300000, guid: c165a9b5d2d4a4a2d9f1d4c5b03edad1, type: 3}
    - {fileID: 21300000, guid: 14d960fd48b67476694dd3cc219bab89, type: 3}
    - {fileID: 21300000, guid: f3f8d1e3e60884583995638b77aa6d43, type: 3}
    - {fileID: 21300000, guid: 6fadc7cecd6984c7d8c18926ba88c675, type: 3}
    - {fileID: 21300000, guid: 142726365a5ef418aba8acf566d69410, type: 3}
    - {fileID: 21300000, guid: 390d5c606cfdf49919c6b5e7d5c98dc7, type: 3}
    - {fileID: 21300000, guid: 88d44d41b599840118f5454e41eb091c, type: 3}
    - {fileID: 21300000, guid: 683955b5ee28d41d3a3a7914e6d2fc40, type: 3}
    - {fileID: 21300000, guid: 453314bd1ab374572bc5a619e04ecd0f, type: 3}
    - {fileID: 21300000, guid: 258c2a643b38d4cb28d8344d98c14597, type: 3}
    - {fileID: 21300000, guid: 14cb61c88645f4b64a21dd92db3e6d85, type: 3}
    - {fileID: 21300000, guid: 3ebe7282daceb441392124eb490553dc, type: 3}
    - {fileID: 21300000, guid: c7a45ba00da3248b192e106dffa11a38, type: 3}
    - {fileID: 21300000, guid: 383f97795cbff40f397fa3b594ceb3e9, type: 3}
    - {fileID: 21300000, guid: 4926d024dc0984b88b3711d14766784d, type: 3}
    - {fileID: 21300000, guid: 42e4cd355d0d843359abf4bb73ba4dad, type: 3}
    - {fileID: 21300000, guid: b58a9db184ebd4bc2bd499ee114c341e, type: 3}
    - {fileID: 21300000, guid: 018982dd0838d4412b8a2c8458f5ce34, type: 3}
    - {fileID: 21300000, guid: eb49f3b14b66d4a66a0f0b8d63f27659, type: 3}
    - {fileID: 21300000, guid: 103c676aaa8264c0bb305394075f94b4, type: 3}
    - {fileID: 21300000, guid: 660fca81cd873447fbcf613d130f3e8d, type: 3}
    - {fileID: 21300000, guid: edd2a1be0885b436b980486ac890bda5, type: 3}
    - {fileID: 21300000, guid: c2a9e46b02f924e9b850c8af31348587, type: 3}
    - {fileID: 21300000, guid: b9a4e65a65ef546138f5305f41f32387, type: 3}
    - {fileID: 21300000, guid: 0e8d1c1e310af4be6a7f41dc39b0179b, type: 3}
    - {fileID: 21300000, guid: 0e2e1aa3f491345d79c7b0d2c6c6864c, type: 3}
  m_AnimationClipSettings:
    serializedVersion: 2
    m_AdditiveReferencePoseClip: {fileID: 0}
    m_AdditiveReferencePoseTime: 0
    m_StartTime: 0
    m_StopTime: 0.72499996
    m_OrientationOffsetY: 0
    m_Level: 0
    m_CycleOffset: 0
    m_HasAdditiveReferencePose: 0
    m_LoopTime: 1
    m_LoopBlend: 0
    m_LoopBlendOrientation: 0
    m_LoopBlendPositionY: 0
    m_LoopBlendPositionXZ: 0
    m_KeepOriginalOrientation: 0
    m_KeepOriginalPositionY: 1
    m_KeepOriginalPositionXZ: 0
    m_HeightFromFeet: 0
    m_Mirror: 0
  m_EditorCurves: []
  m_EulerEditorCurves: []
  m_HasGenericRootTransform: 0
  m_HasMotionFloatCurves: 0
  m_Events: []
