%YAML 1.1
%TAG !u! tag:unity3d.com,2011:
--- !u!74 &7400000
AnimationClip:
  m_ObjectHideFlags: 0
  m_CorrespondingSourceObject: {fileID: 0}
  m_PrefabInstance: {fileID: 0}
  m_PrefabAsset: {fileID: 0}
  m_Name: Explosion
  serializedVersion: 6
  m_Legacy: 0
  m_Compressed: 0
  m_UseHighQualityCurve: 1
  m_RotationCurves: []
  m_CompressedRotationCurves: []
  m_EulerCurves: []
  m_PositionCurves: []
  m_ScaleCurves: []
  m_FloatCurves: []
  m_PPtrCurves:
  - curve:
    - time: 0
      value: {fileID: 21300000, guid: 90123891979ff48c08340f8334d5a8d2, type: 3}
    - time: 0.020833334
      value: {fileID: 21300000, guid: eecb1f4677bcc4af0848d26d54052d28, type: 3}
    - time: 0.041666668
      value: {fileID: 21300000, guid: 33bc757413bdf48d2a47fb60ee595b0e, type: 3}
    - time: 0.0625
      value: {fileID: 21300000, guid: 54102247a962b4289aef7b93cb39bfe8, type: 3}
    - time: 0.083333336
      value: {fileID: 21300000, guid: abfcc64dcfa5b48d29245c317fbb26c2, type: 3}
    - time: 0.104166664
      value: {fileID: 21300000, guid: 5c96d7160d170453691e33f4fe3c2300, type: 3}
    - time: 0.125
      value: {fileID: 21300000, guid: f0c9782d2d1154f02a575cd9b8a69853, type: 3}
    - time: 0.14583333
      value: {fileID: 21300000, guid: ec7d9a0cf28134ee787f6cfc1232c771, type: 3}
    - time: 0.16666667
      value: {fileID: 21300000, guid: 43ba6a672fee7442dba704d5a4a8de09, type: 3}
    - time: 0.1875
      value: {fileID: 21300000, guid: 85826abc4bca84c618bdb7e8efa0161f, type: 3}
    - time: 0.20833333
      value: {fileID: 21300000, guid: e9b6a34631d544001bc928805a11a507, type: 3}
    - time: 0.22916667
      value: {fileID: 21300000, guid: 1c692fa3d25094a36a4c3b465f61afe4, type: 3}
    - time: 0.25
      value: {fileID: 21300000, guid: 3d50dc4983c494ee5bc8d5833472b620, type: 3}
    - time: 0.27083334
      value: {fileID: 21300000, guid: 554c49c36a5054de497a9d2fc9bc3435, type: 3}
    - time: 0.29166666
      value: {fileID: 21300000, guid: 82384f58154ac48929d73c1e4991a6b7, type: 3}
    - time: 0.3125
      value: {fileID: 21300000, guid: 4296d996b064242b59e6c2a651826fae, type: 3}
    - time: 0.33333334
      value: {fileID: 21300000, guid: 447cee2512e414550b02bbec0da7d57c, type: 3}
    - time: 0.35416666
      value: {fileID: 21300000, guid: c0101054352744c9bbdf627f292be7d8, type: 3}
    - time: 0.375
      value: {fileID: 21300000, guid: 198ade382fc98425985028a5962514c4, type: 3}
    - time: 0.39583334
      value: {fileID: 21300000, guid: 2c5f539fa359246f7a84109c37f1cc91, type: 3}
    - time: 0.41666666
      value: {fileID: 21300000, guid: 2ae3fd2434ac447afa3edc0a39b97483, type: 3}
    - time: 0.4375
      value: {fileID: 21300000, guid: bc1e67ecb85034d71bdfdb6be6fdff9c, type: 3}
    - time: 0.45833334
      value: {fileID: 21300000, guid: 5cf44464b573f4dacb8e350e0e5eaffd, type: 3}
    - time: 0.47916666
      value: {fileID: 21300000, guid: f0b0560340a654481b78b2bef0cec56b, type: 3}
    - time: 0.5
      value: {fileID: 21300000, guid: 2afa519571f244d799b2077a06536142, type: 3}
    - time: 0.5208333
      value: {fileID: 21300000, guid: cc0fe3177ae72445d8003a18a8ac3c19, type: 3}
    - time: 0.5416667
      value: {fileID: 21300000, guid: fdb2618c6871d4381bb2f7726ccc5a9a, type: 3}
    - time: 0.5625
      value: {fileID: 21300000, guid: fe42637b5fe714c6ea4180cc83683604, type: 3}
    - time: 0.5833333
      value: {fileID: 21300000, guid: f0b8d89e006f848fb9333602f1a6972b, type: 3}
    - time: 0.6041667
      value: {fileID: 21300000, guid: d7470211b30a74c8f9b1770e534ebb89, type: 3}
    - time: 0.625
      value: {fileID: 21300000, guid: e9cc7d39363cb405aace3554d04cd08e, type: 3}
    - time: 0.6458333
      value: {fileID: 21300000, guid: 56102704f3c1f400ca791092f3177895, type: 3}
    - time: 0.6666667
      value: {fileID: 21300000, guid: 56d34afe9b2274039b03e20b60cae4f5, type: 3}
    - time: 0.6875
      value: {fileID: 21300000, guid: 23f80063cb0964d88821bbb9a1753ebe, type: 3}
    - time: 0.7083333
      value: {fileID: 21300000, guid: 3f36135f0bce04ed4b0b190a29e88aa6, type: 3}
    - time: 0.7291667
      value: {fileID: 21300000, guid: a850828640fa74dff828027e1de393fe, type: 3}
    - time: 0.75
      value: {fileID: 21300000, guid: de62fe75315944d01a0304fea7973565, type: 3}
    - time: 0.7708333
      value: {fileID: 21300000, guid: 499a524f20dff45ebbbb4dca80eb69c9, type: 3}
    - time: 0.7916667
      value: {fileID: 21300000, guid: 2c0e4e0dbb0bf4d4fa14de1dd78780cf, type: 3}
    - time: 0.8125
      value: {fileID: 21300000, guid: a79b44d115fc240baaa310be5f83a394, type: 3}
    - time: 0.8333333
      value: {fileID: 21300000, guid: 90123891979ff48c08340f8334d5a8d2, type: 3}
    attribute: m_Sprite
    path: 
    classID: 212
    script: {fileID: 0}
  m_SampleRate: 48
  m_WrapMode: 0
  m_Bounds:
    m_Center: {x: 0, y: 0, z: 0}
    m_Extent: {x: 0, y: 0, z: 0}
  m_ClipBindingConstant:
    genericBindings:
    - serializedVersion: 2
      path: 0
      attribute: 0
      script: {fileID: 0}
      typeID: 212
      customType: 23
      isPPtrCurve: 1
    pptrCurveMapping:
    - {fileID: 21300000, guid: 90123891979ff48c08340f8334d5a8d2, type: 3}
    - {fileID: 21300000, guid: eecb1f4677bcc4af0848d26d54052d28, type: 3}
    - {fileID: 21300000, guid: 33bc757413bdf48d2a47fb60ee595b0e, type: 3}
    - {fileID: 21300000, guid: 54102247a962b4289aef7b93cb39bfe8, type: 3}
    - {fileID: 21300000, guid: abfcc64dcfa5b48d29245c317fbb26c2, type: 3}
    - {fileID: 21300000, guid: 5c96d7160d170453691e33f4fe3c2300, type: 3}
    - {fileID: 21300000, guid: f0c9782d2d1154f02a575cd9b8a69853, type: 3}
    - {fileID: 21300000, guid: ec7d9a0cf28134ee787f6cfc1232c771, type: 3}
    - {fileID: 21300000, guid: 43ba6a672fee7442dba704d5a4a8de09, type: 3}
    - {fileID: 21300000, guid: 85826abc4bca84c618bdb7e8efa0161f, type: 3}
    - {fileID: 21300000, guid: e9b6a34631d544001bc928805a11a507, type: 3}
    - {fileID: 21300000, guid: 1c692fa3d25094a36a4c3b465f61afe4, type: 3}
    - {fileID: 21300000, guid: 3d50dc4983c494ee5bc8d5833472b620, type: 3}
    - {fileID: 21300000, guid: 554c49c36a5054de497a9d2fc9bc3435, type: 3}
    - {fileID: 21300000, guid: 82384f58154ac48929d73c1e4991a6b7, type: 3}
    - {fileID: 21300000, guid: 4296d996b064242b59e6c2a651826fae, type: 3}
    - {fileID: 21300000, guid: 447cee2512e414550b02bbec0da7d57c, type: 3}
    - {fileID: 21300000, guid: c0101054352744c9bbdf627f292be7d8, type: 3}
    - {fileID: 21300000, guid: 198ade382fc98425985028a5962514c4, type: 3}
    - {fileID: 21300000, guid: 2c5f539fa359246f7a84109c37f1cc91, type: 3}
    - {fileID: 21300000, guid: 2ae3fd2434ac447afa3edc0a39b97483, type: 3}
    - {fileID: 21300000, guid: bc1e67ecb85034d71bdfdb6be6fdff9c, type: 3}
    - {fileID: 21300000, guid: 5cf44464b573f4dacb8e350e0e5eaffd, type: 3}
    - {fileID: 21300000, guid: f0b0560340a654481b78b2bef0cec56b, type: 3}
    - {fileID: 21300000, guid: 2afa519571f244d799b2077a06536142, type: 3}
    - {fileID: 21300000, guid: cc0fe3177ae72445d8003a18a8ac3c19, type: 3}
    - {fileID: 21300000, guid: fdb2618c6871d4381bb2f7726ccc5a9a, type: 3}
    - {fileID: 21300000, guid: fe42637b5fe714c6ea4180cc83683604, type: 3}
    - {fileID: 21300000, guid: f0b8d89e006f848fb9333602f1a6972b, type: 3}
    - {fileID: 21300000, guid: d7470211b30a74c8f9b1770e534ebb89, type: 3}
    - {fileID: 21300000, guid: e9cc7d39363cb405aace3554d04cd08e, type: 3}
    - {fileID: 21300000, guid: 56102704f3c1f400ca791092f3177895, type: 3}
    - {fileID: 21300000, guid: 56d34afe9b2274039b03e20b60cae4f5, type: 3}
    - {fileID: 21300000, guid: 23f80063cb0964d88821bbb9a1753ebe, type: 3}
    - {fileID: 21300000, guid: 3f36135f0bce04ed4b0b190a29e88aa6, type: 3}
    - {fileID: 21300000, guid: a850828640fa74dff828027e1de393fe, type: 3}
    - {fileID: 21300000, guid: de62fe75315944d01a0304fea7973565, type: 3}
    - {fileID: 21300000, guid: 499a524f20dff45ebbbb4dca80eb69c9, type: 3}
    - {fileID: 21300000, guid: 2c0e4e0dbb0bf4d4fa14de1dd78780cf, type: 3}
    - {fileID: 21300000, guid: a79b44d115fc240baaa310be5f83a394, type: 3}
    - {fileID: 21300000, guid: 90123891979ff48c08340f8334d5a8d2, type: 3}
  m_AnimationClipSettings:
    serializedVersion: 2
    m_AdditiveReferencePoseClip: {fileID: 0}
    m_AdditiveReferencePoseTime: 0
    m_StartTime: 0
    m_StopTime: 0.8541666
    m_OrientationOffsetY: 0
    m_Level: 0
    m_CycleOffset: 0
    m_HasAdditiveReferencePose: 0
    m_LoopTime: 1
    m_LoopBlend: 0
    m_LoopBlendOrientation: 0
    m_LoopBlendPositionY: 0
    m_LoopBlendPositionXZ: 0
    m_KeepOriginalOrientation: 0
    m_KeepOriginalPositionY: 1
    m_KeepOriginalPositionXZ: 0
    m_HeightFromFeet: 0
    m_Mirror: 0
  m_EditorCurves: []
  m_EulerEditorCurves: []
  m_HasGenericRootTransform: 0
  m_HasMotionFloatCurves: 0
  m_Events: []
